%YAML 1.1
%TAG !u! tag:unity3d.com,2011:
--- !u!74 &7400000
AnimationClip:
  m_ObjectHideFlags: 0
  m_PrefabParentObject: {fileID: 0}
  m_PrefabInternal: {fileID: 0}
  m_Name: Opening
  serializedVersion: 6
  m_Legacy: 0
  m_Compressed: 0
  m_UseHighQualityCurve: 1
  m_RotationCurves: []
  m_CompressedRotationCurves: []
  m_EulerCurves: []
  m_PositionCurves: []
  m_ScaleCurves: []
  m_FloatCurves: []
  m_PPtrCurves:
  - curve:
    - time: 0
      value: {fileID: 21300000, guid: 447edc0f8b960cc4c8ecb2e32c83be80, type: 3}
    - time: 0.016666668
      value: {fileID: 21300000, guid: 42494f152b8b3f04592757f5c57dd776, type: 3}
    - time: 0.033333335
      value: {fileID: 21300000, guid: cde0120b1837bf4418af86f80eb82214, type: 3}
    - time: 0.05
      value: {fileID: 21300000, guid: 556f431da498bb34ca6766a3e1d68e6a, type: 3}
    - time: 0.06666667
      value: {fileID: 21300000, guid: 33cef9b11a585bf4ab943b5a56ed3e9f, type: 3}
    - time: 0.083333336
      value: {fileID: 21300000, guid: 8cadb03559d06854d8860d1f8fe3838e, type: 3}
    - time: 0.1
      value: {fileID: 21300000, guid: 8de81ceeea5882d49a0c363a3afdc2b7, type: 3}
    - time: 0.11666667
      value: {fileID: 21300000, guid: bfea7d73123b42540a958a855dd4c7b6, type: 3}
    - time: 0.13333334
      value: {fileID: 21300000, guid: cee747319ba63f14eb2869495697bb1f, type: 3}
    - time: 0.15
      value: {fileID: 21300000, guid: fff31d937b7dd6e42bfef7d60b05e811, type: 3}
    - time: 0.16666667
      value: {fileID: 21300000, guid: 62dcda75b32cce745bce1e6602a6c85e, type: 3}
    - time: 0.18333334
      value: {fileID: 21300000, guid: 79913c964da7ec84fabc3038851da1bd, type: 3}
    - time: 0.2
      value: {fileID: 21300000, guid: 71f586300b6019e4ca58960914a28ee6, type: 3}
    - time: 0.21666667
      value: {fileID: 21300000, guid: d5bdee10f4be90c46bbd5c7f60b55618, type: 3}
    - time: 0.23333333
      value: {fileID: 21300000, guid: 1840b3071bdc91b498e27e6298dd6053, type: 3}
    - time: 0.25
      value: {fileID: 21300000, guid: 6e3c5b727f07bc74a91f3428688b50ad, type: 3}
    - time: 0.26666668
      value: {fileID: 21300000, guid: 1f53c8db78fe8874c9f2e542c9f7cd90, type: 3}
    - time: 0.28333336
      value: {fileID: 21300000, guid: 870d6b79ade55fc458517a9a4f474e6d, type: 3}
    - time: 0.30000004
      value: {fileID: 21300000, guid: 596c82cc91f482a4db8e3bf0e93077cb, type: 3}
    - time: 0.31666672
      value: {fileID: 21300000, guid: e3f6077d00cc8fb41be4a8fc78ce4f8d, type: 3}
    - time: 0.3333334
      value: {fileID: 21300000, guid: 77aeacab25c0301448bfd0e9c819f864, type: 3}
    - time: 0.35000008
      value: {fileID: 21300000, guid: 2bd79755e777b3f469e811ec8999e235, type: 3}
    - time: 0.36666676
      value: {fileID: 21300000, guid: e4aac1ae2cbf5d44d85aa5c9a9dedf8b, type: 3}
    - time: 0.38333344
      value: {fileID: 21300000, guid: ffdc5310fc8a76c4db27c1b36de88b40, type: 3}
    attribute: m_Sprite
    path: 
    classID: 212
    script: {fileID: 0}
  m_SampleRate: 60
  m_WrapMode: 0
  m_Bounds:
    m_Center: {x: 0, y: 0, z: 0}
    m_Extent: {x: 0, y: 0, z: 0}
  m_ClipBindingConstant:
    genericBindings:
    - path: 0
      attribute: 0
      script: {fileID: 0}
      classID: 212
      customType: 23
      isPPtrCurve: 1
    pptrCurveMapping:
    - {fileID: 21300000, guid: 447edc0f8b960cc4c8ecb2e32c83be80, type: 3}
    - {fileID: 21300000, guid: 42494f152b8b3f04592757f5c57dd776, type: 3}
    - {fileID: 21300000, guid: cde0120b1837bf4418af86f80eb82214, type: 3}
    - {fileID: 21300000, guid: 556f431da498bb34ca6766a3e1d68e6a, type: 3}
    - {fileID: 21300000, guid: 33cef9b11a585bf4ab943b5a56ed3e9f, type: 3}
    - {fileID: 21300000, guid: 8cadb03559d06854d8860d1f8fe3838e, type: 3}
    - {fileID: 21300000, guid: 8de81ceeea5882d49a0c363a3afdc2b7, type: 3}
    - {fileID: 21300000, guid: bfea7d73123b42540a958a855dd4c7b6, type: 3}
    - {fileID: 21300000, guid: cee747319ba63f14eb2869495697bb1f, type: 3}
    - {fileID: 21300000, guid: fff31d937b7dd6e42bfef7d60b05e811, type: 3}
    - {fileID: 21300000, guid: 62dcda75b32cce745bce1e6602a6c85e, type: 3}
    - {fileID: 21300000, guid: 79913c964da7ec84fabc3038851da1bd, type: 3}
    - {fileID: 21300000, guid: 71f586300b6019e4ca58960914a28ee6, type: 3}
    - {fileID: 21300000, guid: d5bdee10f4be90c46bbd5c7f60b55618, type: 3}
    - {fileID: 21300000, guid: 1840b3071bdc91b498e27e6298dd6053, type: 3}
    - {fileID: 21300000, guid: 6e3c5b727f07bc74a91f3428688b50ad, type: 3}
    - {fileID: 21300000, guid: 1f53c8db78fe8874c9f2e542c9f7cd90, type: 3}
    - {fileID: 21300000, guid: 870d6b79ade55fc458517a9a4f474e6d, type: 3}
    - {fileID: 21300000, guid: 596c82cc91f482a4db8e3bf0e93077cb, type: 3}
    - {fileID: 21300000, guid: e3f6077d00cc8fb41be4a8fc78ce4f8d, type: 3}
    - {fileID: 21300000, guid: 77aeacab25c0301448bfd0e9c819f864, type: 3}
    - {fileID: 21300000, guid: 2bd79755e777b3f469e811ec8999e235, type: 3}
    - {fileID: 21300000, guid: e4aac1ae2cbf5d44d85aa5c9a9dedf8b, type: 3}
    - {fileID: 21300000, guid: ffdc5310fc8a76c4db27c1b36de88b40, type: 3}
  m_AnimationClipSettings:
    serializedVersion: 2
    m_AdditiveReferencePoseClip: {fileID: 0}
    m_AdditiveReferencePoseTime: 0
    m_StartTime: 0
    m_StopTime: 0.40000013
    m_OrientationOffsetY: 0
    m_Level: 0
    m_CycleOffset: 0
    m_HasAdditiveReferencePose: 0
    m_LoopTime: 0
    m_LoopBlend: 0
    m_LoopBlendOrientation: 0
    m_LoopBlendPositionY: 0
    m_LoopBlendPositionXZ: 0
    m_KeepOriginalOrientation: 0
    m_KeepOriginalPositionY: 1
    m_KeepOriginalPositionXZ: 0
    m_HeightFromFeet: 0
    m_Mirror: 0
  m_EditorCurves: []
  m_EulerEditorCurves: []
  m_HasGenericRootTransform: 0
  m_HasMotionFloatCurves: 0
  m_GenerateMotionCurves: 0
  m_Events: []
