%YAML 1.1
%TAG !u! tag:unity3d.com,2011:
--- !u!74 &7400000
AnimationClip:
  m_ObjectHideFlags: 0
  m_PrefabParentObject: {fileID: 0}
  m_PrefabInternal: {fileID: 0}
  m_Name: ElectricityLoop
  serializedVersion: 6
  m_Legacy: 0
  m_Compressed: 0
  m_UseHighQualityCurve: 1
  m_RotationCurves: []
  m_CompressedRotationCurves: []
  m_EulerCurves: []
  m_PositionCurves: []
  m_ScaleCurves: []
  m_FloatCurves: []
  m_PPtrCurves:
  - curve:
    - time: 0
      value: {fileID: 21300000, guid: c393477b4b49daa4596ebbf379216835, type: 3}
    - time: 0.016666668
      value: {fileID: 21300000, guid: 9267031e2a2fb7e4b8c1a01f1f507dd2, type: 3}
    - time: 0.033333335
      value: {fileID: 21300000, guid: 58e5fa35a27c73c48852fe228ad3d9ea, type: 3}
    - time: 0.05
      value: {fileID: 21300000, guid: 417728081ec7f6244b8a2a6aac6b0e25, type: 3}
    - time: 0.06666667
      value: {fileID: 21300000, guid: d7eb7b4db58b1c644b69f06233e5c869, type: 3}
    - time: 0.083333336
      value: {fileID: 21300000, guid: 9864348668eb867458c37cde1ee6f793, type: 3}
    - time: 0.1
      value: {fileID: 21300000, guid: 7eb0403aa8611704380b0c0302a48127, type: 3}
    attribute: m_Sprite
    path: 
    classID: 212
    script: {fileID: 0}
  m_SampleRate: 60
  m_WrapMode: 0
  m_Bounds:
    m_Center: {x: 0, y: 0, z: 0}
    m_Extent: {x: 0, y: 0, z: 0}
  m_ClipBindingConstant:
    genericBindings:
    - path: 0
      attribute: 0
      script: {fileID: 0}
      classID: 212
      customType: 23
      isPPtrCurve: 1
    pptrCurveMapping:
    - {fileID: 21300000, guid: c393477b4b49daa4596ebbf379216835, type: 3}
    - {fileID: 21300000, guid: 9267031e2a2fb7e4b8c1a01f1f507dd2, type: 3}
    - {fileID: 21300000, guid: 58e5fa35a27c73c48852fe228ad3d9ea, type: 3}
    - {fileID: 21300000, guid: 417728081ec7f6244b8a2a6aac6b0e25, type: 3}
    - {fileID: 21300000, guid: d7eb7b4db58b1c644b69f06233e5c869, type: 3}
    - {fileID: 21300000, guid: 9864348668eb867458c37cde1ee6f793, type: 3}
    - {fileID: 21300000, guid: 7eb0403aa8611704380b0c0302a48127, type: 3}
  m_AnimationClipSettings:
    serializedVersion: 2
    m_AdditiveReferencePoseClip: {fileID: 0}
    m_AdditiveReferencePoseTime: 0
    m_StartTime: 0
    m_StopTime: 0.11666667
    m_OrientationOffsetY: 0
    m_Level: 0
    m_CycleOffset: 0
    m_HasAdditiveReferencePose: 0
    m_LoopTime: 1
    m_LoopBlend: 0
    m_LoopBlendOrientation: 0
    m_LoopBlendPositionY: 0
    m_LoopBlendPositionXZ: 0
    m_KeepOriginalOrientation: 0
    m_KeepOriginalPositionY: 1
    m_KeepOriginalPositionXZ: 0
    m_HeightFromFeet: 0
    m_Mirror: 0
  m_EditorCurves: []
  m_EulerEditorCurves: []
  m_HasGenericRootTransform: 0
  m_HasMotionFloatCurves: 0
  m_GenerateMotionCurves: 0
  m_Events: []
