%YAML 1.1
%TAG !u! tag:unity3d.com,2011:
--- !u!74 &7400000
AnimationClip:
  m_ObjectHideFlags: 0
  m_PrefabParentObject: {fileID: 0}
  m_PrefabInternal: {fileID: 0}
  m_Name: FlashDragonRaidenPunchHit2
  serializedVersion: 6
  m_Legacy: 0
  m_Compressed: 0
  m_UseHighQualityCurve: 1
  m_RotationCurves: []
  m_CompressedRotationCurves: []
  m_EulerCurves: []
  m_PositionCurves:
  - curve:
      serializedVersion: 2
      m_Curve:
      - time: 0
        value: {x: 0.71, y: 1.29, z: 0}
        inSlope: {x: -8.999998, y: -17.999996, z: 0}
        outSlope: {x: -8.999998, y: -17.999996, z: 0}
        tangentMode: 0
      - time: 0.016666668
        value: {x: 0.56, y: 0.99, z: 0}
        inSlope: {x: -3.2999985, y: -12.299998, z: 0}
        outSlope: {x: -3.2999985, y: -12.299998, z: 0}
        tangentMode: 0
      - time: 0.033333335
        value: {x: 0.6, y: 0.88, z: 0}
        inSlope: {x: -0.59999967, y: -1.7999997, z: 0}
        outSlope: {x: -0.59999967, y: -1.7999997, z: 0}
        tangentMode: 0
      - time: 0.05
        value: {x: 0.54, y: 0.93, z: 0}
        inSlope: {x: -2.1000009, y: 2.1000009, z: 0}
        outSlope: {x: -2.1000009, y: 2.1000009, z: 0}
        tangentMode: 0
      - time: 0.083333336
        value: {x: 0.52, y: 0.97, z: 0}
        inSlope: {x: -0.30000058, y: 0.60000026, z: 0}
        outSlope: {x: -0.30000058, y: 0.60000026, z: 0}
        tangentMode: 0
      - time: 0.1
        value: {x: 0.52, y: 0.97, z: 0}
        inSlope: {x: 0, y: -0.6000013, z: 0}
        outSlope: {x: 0, y: -0.6000013, z: 0}
        tangentMode: 0
      - time: 0.11666667
        value: {x: 0.52, y: 0.95, z: 0}
        inSlope: {x: -0.8999988, y: 0.8999985, z: 0}
        outSlope: {x: -0.8999988, y: 0.8999985, z: 0}
        tangentMode: 0
      - time: 0.13333334
        value: {x: 0.49, y: 1, z: 0}
        inSlope: {x: -0.8933321, y: 1.0500002, z: 0}
        outSlope: {x: -0.8933321, y: 1.0500002, z: 0}
        tangentMode: 0
      - time: 0.16666667
        value: {x: 0.49044445, y: 0.97, z: 0}
        inSlope: {x: -1.506667, y: -1.0500009, z: 0}
        outSlope: {x: -1.506667, y: -1.0500009, z: 0}
        tangentMode: 0
      - time: 0.18333334
        value: {x: 0.44, y: 0.95, z: 0}
        inSlope: {x: -3.0266674, y: -1.2000026, z: 0}
        outSlope: {x: -3.0266674, y: -1.2000026, z: 0}
        tangentMode: 0
      m_PreInfinity: 2
      m_PostInfinity: 2
      m_RotationOrder: 4
    path: HitBox
  m_ScaleCurves:
  - curve:
      serializedVersion: 2
      m_Curve:
      - time: 0
        value: {x: 4.173888, y: 4.1738873, z: 2.7825918}
        inSlope: {x: 20.05185, y: 20.05182, z: 13.3679}
        outSlope: {x: 20.05185, y: 20.05182, z: 13.3679}
        tangentMode: 0
      - time: 0.016666668
        value: {x: 4.5080857, y: 4.5080843, z: 3.0053902}
        inSlope: {x: 11.010878, y: 11.010863, z: 7.340586}
        outSlope: {x: 11.010878, y: 11.010863, z: 7.340586}
        tangentMode: 0
      - time: 0.1
        value: {x: 4.6722445, y: 4.672243, z: 3.1148295}
        inSlope: {x: -1.5597334, y: -1.5597262, z: -1.0398178}
        outSlope: {x: -1.5597334, y: -1.5597262, z: -1.0398178}
        tangentMode: 0
      - time: 0.13333334
        value: {x: 4.502599, y: 4.502598, z: 3.0017326}
        inSlope: {x: -0.3238027, y: -0.32378125, z: -0.21586025}
        outSlope: {x: -0.3238027, y: -0.32378125, z: -0.21586025}
        tangentMode: 0
      - time: 0.15
        value: {x: 4.576628, y: 4.5766277, z: 3.0510857}
        inSlope: {x: 0.8582498, y: 0.8582641, z: 0.5721689}
        outSlope: {x: 0.8582498, y: 0.8582641, z: 0.5721689}
        tangentMode: 0
      - time: 0.16666667
        value: {x: 4.531207, y: 4.5312066, z: 3.020805}
        inSlope: {x: -9.139081, y: -9.139081, z: -6.092735}
        outSlope: {x: -9.139081, y: -9.139081, z: -6.092735}
        tangentMode: 0
      - time: 0.18333334
        value: {x: 4.271992, y: 4.2719917, z: 2.8479946}
        inSlope: {x: -15.552894, y: -15.552894, z: -10.36862}
        outSlope: {x: -15.552894, y: -15.552894, z: -10.36862}
        tangentMode: 0
      m_PreInfinity: 2
      m_PostInfinity: 2
      m_RotationOrder: 4
    path: HitBox
  m_FloatCurves: []
  m_PPtrCurves:
  - curve:
    - time: 0
      value: {fileID: 21300000, guid: 6b33035a661cbbc468e55500cea7ad7e, type: 3}
    - time: 0.016666668
      value: {fileID: 21300000, guid: 5616c871779064a4387173265a793ad1, type: 3}
    - time: 0.033333335
      value: {fileID: 21300000, guid: dcb5374df56155644865c97106faed95, type: 3}
    - time: 0.05
      value: {fileID: 21300000, guid: 1c3a7acc61c4b5a41995694b4dc5f7b6, type: 3}
    - time: 0.06666667
      value: {fileID: 21300000, guid: a3847983961700447aae27f4a4c32555, type: 3}
    - time: 0.083333336
      value: {fileID: 21300000, guid: 502f1f3559fbe0f41b1720f063326f26, type: 3}
    - time: 0.1
      value: {fileID: 21300000, guid: ed0d42fb45f277f46919ae763ef9ea3c, type: 3}
    - time: 0.11666667
      value: {fileID: 21300000, guid: d07cfc4ded88d9d4dbb731840b7e4d4c, type: 3}
    - time: 0.13333334
      value: {fileID: 21300000, guid: f0a51d73dc1b0034e9f6488bb3c775dc, type: 3}
    - time: 0.15
      value: {fileID: 21300000, guid: 660abe5a822637349a822d862c8d50eb, type: 3}
    - time: 0.16666667
      value: {fileID: 21300000, guid: 85073b3ff30d7af4c9a270dbef0d6396, type: 3}
    - time: 0.18333334
      value: {fileID: 21300000, guid: 132eca87231222f4e8bf640c127313cb, type: 3}
    attribute: m_Sprite
    path: 
    classID: 212
    script: {fileID: 0}
  m_SampleRate: 60
  m_WrapMode: 0
  m_Bounds:
    m_Center: {x: 0, y: 0, z: 0}
    m_Extent: {x: 0, y: 0, z: 0}
  m_ClipBindingConstant:
    genericBindings:
    - path: 3977501853
      attribute: 1
      script: {fileID: 0}
      classID: 4
      customType: 0
      isPPtrCurve: 0
    - path: 3977501853
      attribute: 3
      script: {fileID: 0}
      classID: 4
      customType: 0
      isPPtrCurve: 0
    - path: 0
      attribute: 0
      script: {fileID: 0}
      classID: 212
      customType: 23
      isPPtrCurve: 1
    pptrCurveMapping:
    - {fileID: 21300000, guid: 6b33035a661cbbc468e55500cea7ad7e, type: 3}
    - {fileID: 21300000, guid: 5616c871779064a4387173265a793ad1, type: 3}
    - {fileID: 21300000, guid: dcb5374df56155644865c97106faed95, type: 3}
    - {fileID: 21300000, guid: 1c3a7acc61c4b5a41995694b4dc5f7b6, type: 3}
    - {fileID: 21300000, guid: a3847983961700447aae27f4a4c32555, type: 3}
    - {fileID: 21300000, guid: 502f1f3559fbe0f41b1720f063326f26, type: 3}
    - {fileID: 21300000, guid: ed0d42fb45f277f46919ae763ef9ea3c, type: 3}
    - {fileID: 21300000, guid: d07cfc4ded88d9d4dbb731840b7e4d4c, type: 3}
    - {fileID: 21300000, guid: f0a51d73dc1b0034e9f6488bb3c775dc, type: 3}
    - {fileID: 21300000, guid: 660abe5a822637349a822d862c8d50eb, type: 3}
    - {fileID: 21300000, guid: 85073b3ff30d7af4c9a270dbef0d6396, type: 3}
    - {fileID: 21300000, guid: 132eca87231222f4e8bf640c127313cb, type: 3}
  m_AnimationClipSettings:
    serializedVersion: 2
    m_AdditiveReferencePoseClip: {fileID: 0}
    m_AdditiveReferencePoseTime: 0
    m_StartTime: 0
    m_StopTime: 0.2
    m_OrientationOffsetY: 0
    m_Level: 0
    m_CycleOffset: 0
    m_HasAdditiveReferencePose: 0
    m_LoopTime: 0
    m_LoopBlend: 0
    m_LoopBlendOrientation: 0
    m_LoopBlendPositionY: 0
    m_LoopBlendPositionXZ: 0
    m_KeepOriginalOrientation: 0
    m_KeepOriginalPositionY: 1
    m_KeepOriginalPositionXZ: 0
    m_HeightFromFeet: 0
    m_Mirror: 0
  m_EditorCurves:
  - curve:
      serializedVersion: 2
      m_Curve:
      - time: 0
        value: 0.71
        inSlope: -8.999998
        outSlope: -8.999998
        tangentMode: 10
      - time: 0.016666668
        value: 0.56
        inSlope: -3.2999985
        outSlope: -3.2999985
        tangentMode: 10
      - time: 0.033333335
        value: 0.6
        inSlope: -0.59999967
        outSlope: -0.59999967
        tangentMode: 10
      - time: 0.05
        value: 0.54
        inSlope: -2.1000009
        outSlope: -2.1000009
        tangentMode: 10
      - time: 0.083333336
        value: 0.52
        inSlope: -0.30000058
        outSlope: -0.30000058
        tangentMode: 10
      - time: 0.1
        value: 0.52
        inSlope: 0
        outSlope: 0
        tangentMode: 10
      - time: 0.11666667
        value: 0.52
        inSlope: -0.8999988
        outSlope: -0.8999988
        tangentMode: 10
      - time: 0.13333334
        value: 0.49
        inSlope: -0.8933321
        outSlope: -0.8933321
        tangentMode: 10
      - time: 0.16666667
        value: 0.49044445
        inSlope: -1.506667
        outSlope: -1.506667
        tangentMode: 10
      - time: 0.18333334
        value: 0.44
        inSlope: -3.0266674
        outSlope: -3.0266674
        tangentMode: 10
      m_PreInfinity: 2
      m_PostInfinity: 2
      m_RotationOrder: 4
    attribute: m_LocalPosition.x
    path: HitBox
    classID: 4
    script: {fileID: 0}
  - curve:
      serializedVersion: 2
      m_Curve:
      - time: 0
        value: 1.29
        inSlope: -17.999996
        outSlope: -17.999996
        tangentMode: 10
      - time: 0.016666668
        value: 0.99
        inSlope: -12.299998
        outSlope: -12.299998
        tangentMode: 10
      - time: 0.033333335
        value: 0.88
        inSlope: -1.7999997
        outSlope: -1.7999997
        tangentMode: 10
      - time: 0.05
        value: 0.93
        inSlope: 2.1000009
        outSlope: 2.1000009
        tangentMode: 10
      - time: 0.083333336
        value: 0.97
        inSlope: 0.60000026
        outSlope: 0.60000026
        tangentMode: 10
      - time: 0.1
        value: 0.97
        inSlope: -0.6000013
        outSlope: -0.6000013
        tangentMode: 10
      - time: 0.11666667
        value: 0.95
        inSlope: 0.8999985
        outSlope: 0.8999985
        tangentMode: 10
      - time: 0.13333334
        value: 1
        inSlope: 1.0500002
        outSlope: 1.0500002
        tangentMode: 10
      - time: 0.16666667
        value: 0.97
        inSlope: -1.0500009
        outSlope: -1.0500009
        tangentMode: 10
      - time: 0.18333334
        value: 0.95
        inSlope: -1.2000026
        outSlope: -1.2000026
        tangentMode: 10
      m_PreInfinity: 2
      m_PostInfinity: 2
      m_RotationOrder: 4
    attribute: m_LocalPosition.y
    path: HitBox
    classID: 4
    script: {fileID: 0}
  - curve:
      serializedVersion: 2
      m_Curve:
      - time: 0
        value: 0
        inSlope: 0
        outSlope: 0
        tangentMode: 10
      - time: 0.016666668
        value: 0
        inSlope: 0
        outSlope: 0
        tangentMode: 10
      - time: 0.033333335
        value: 0
        inSlope: 0
        outSlope: 0
        tangentMode: 10
      - time: 0.05
        value: 0
        inSlope: 0
        outSlope: 0
        tangentMode: 10
      - time: 0.083333336
        value: 0
        inSlope: 0
        outSlope: 0
        tangentMode: 10
      - time: 0.1
        value: 0
        inSlope: 0
        outSlope: 0
        tangentMode: 10
      - time: 0.11666667
        value: 0
        inSlope: 0
        outSlope: 0
        tangentMode: 10
      - time: 0.13333334
        value: 0
        inSlope: 0
        outSlope: 0
        tangentMode: 10
      - time: 0.16666667
        value: 0
        inSlope: 0
        outSlope: 0
        tangentMode: 10
      - time: 0.18333334
        value: 0
        inSlope: 0
        outSlope: 0
        tangentMode: 10
      m_PreInfinity: 2
      m_PostInfinity: 2
      m_RotationOrder: 4
    attribute: m_LocalPosition.z
    path: HitBox
    classID: 4
    script: {fileID: 0}
  - curve:
      serializedVersion: 2
      m_Curve:
      - time: 0
        value: 4.173888
        inSlope: 20.05185
        outSlope: 20.05185
        tangentMode: 10
      - time: 0.016666668
        value: 4.5080857
        inSlope: 11.010878
        outSlope: 11.010878
        tangentMode: 10
      - time: 0.1
        value: 4.6722445
        inSlope: -1.5597334
        outSlope: -1.5597334
        tangentMode: 10
      - time: 0.13333334
        value: 4.502599
        inSlope: -0.3238027
        outSlope: -0.3238027
        tangentMode: 10
      - time: 0.15
        value: 4.576628
        inSlope: 0.8582498
        outSlope: 0.8582498
        tangentMode: 10
      - time: 0.16666667
        value: 4.531207
        inSlope: -9.139081
        outSlope: -9.139081
        tangentMode: 10
      - time: 0.18333334
        value: 4.271992
        inSlope: -15.552894
        outSlope: -15.552894
        tangentMode: 10
      m_PreInfinity: 2
      m_PostInfinity: 2
      m_RotationOrder: 4
    attribute: m_LocalScale.x
    path: HitBox
    classID: 4
    script: {fileID: 0}
  - curve:
      serializedVersion: 2
      m_Curve:
      - time: 0
        value: 4.1738873
        inSlope: 20.05182
        outSlope: 20.05182
        tangentMode: 10
      - time: 0.016666668
        value: 4.5080843
        inSlope: 11.010863
        outSlope: 11.010863
        tangentMode: 10
      - time: 0.1
        value: 4.672243
        inSlope: -1.5597262
        outSlope: -1.5597262
        tangentMode: 10
      - time: 0.13333334
        value: 4.502598
        inSlope: -0.32378125
        outSlope: -0.32378125
        tangentMode: 10
      - time: 0.15
        value: 4.5766277
        inSlope: 0.8582641
        outSlope: 0.8582641
        tangentMode: 10
      - time: 0.16666667
        value: 4.5312066
        inSlope: -9.139081
        outSlope: -9.139081
        tangentMode: 10
      - time: 0.18333334
        value: 4.2719917
        inSlope: -15.552894
        outSlope: -15.552894
        tangentMode: 10
      m_PreInfinity: 2
      m_PostInfinity: 2
      m_RotationOrder: 4
    attribute: m_LocalScale.y
    path: HitBox
    classID: 4
    script: {fileID: 0}
  - curve:
      serializedVersion: 2
      m_Curve:
      - time: 0
        value: 2.7825918
        inSlope: 13.3679
        outSlope: 13.3679
        tangentMode: 10
      - time: 0.016666668
        value: 3.0053902
        inSlope: 7.340586
        outSlope: 7.340586
        tangentMode: 10
      - time: 0.1
        value: 3.1148295
        inSlope: -1.0398178
        outSlope: -1.0398178
        tangentMode: 10
      - time: 0.13333334
        value: 3.0017326
        inSlope: -0.21586025
        outSlope: -0.21586025
        tangentMode: 10
      - time: 0.15
        value: 3.0510857
        inSlope: 0.5721689
        outSlope: 0.5721689
        tangentMode: 10
      - time: 0.16666667
        value: 3.020805
        inSlope: -6.092735
        outSlope: -6.092735
        tangentMode: 10
      - time: 0.18333334
        value: 2.8479946
        inSlope: -10.36862
        outSlope: -10.36862
        tangentMode: 10
      m_PreInfinity: 2
      m_PostInfinity: 2
      m_RotationOrder: 4
    attribute: m_LocalScale.z
    path: HitBox
    classID: 4
    script: {fileID: 0}
  m_EulerEditorCurves: []
  m_HasGenericRootTransform: 0
  m_HasMotionFloatCurves: 0
  m_GenerateMotionCurves: 0
  m_Events: []
