%YAML 1.1
%TAG !u! tag:unity3d.com,2011:
--- !u!74 &7400000
AnimationClip:
  m_ObjectHideFlags: 0
  m_PrefabParentObject: {fileID: 0}
  m_PrefabInternal: {fileID: 0}
  m_Name: FlashRaidenStartup
  serializedVersion: 6
  m_Legacy: 0
  m_Compressed: 0
  m_UseHighQualityCurve: 1
  m_RotationCurves: []
  m_CompressedRotationCurves: []
  m_EulerCurves: []
  m_PositionCurves: []
  m_ScaleCurves: []
  m_FloatCurves: []
  m_PPtrCurves:
  - curve:
    - time: 0
      value: {fileID: 21300000, guid: 0494c42ac9b6fe043a787fbb8b977677, type: 3}
    - time: 0.016666668
      value: {fileID: 21300000, guid: aa95940349fee184b8d16e4460eebf42, type: 3}
    - time: 0.033333335
      value: {fileID: 21300000, guid: ccad7508d17d10141b1f7b219ecb72af, type: 3}
    - time: 0.05
      value: {fileID: 21300000, guid: 0d5ec52078c4b824fa0173a0e9dd1794, type: 3}
    - time: 0.06666667
      value: {fileID: 21300000, guid: 9bb676b4de8c44b43b73b1c833374dec, type: 3}
    - time: 0.083333336
      value: {fileID: 21300000, guid: 8e10995f475c0ba419a66d64f696aa0f, type: 3}
    - time: 0.1
      value: {fileID: 21300000, guid: bbe993aff6005894788ff5a238c547ae, type: 3}
    - time: 0.11666667
      value: {fileID: 21300000, guid: 47d47a94ab38efa4785d2a9b80aaaeb1, type: 3}
    - time: 0.13333334
      value: {fileID: 21300000, guid: 81688cd71eeda7b44bd79c1b12f4785e, type: 3}
    - time: 0.15
      value: {fileID: 21300000, guid: a5daf90bd8f888540ad56aa77c7e8e8b, type: 3}
    - time: 0.16666667
      value: {fileID: 21300000, guid: af67d16b0b1950146bad91e5b0529037, type: 3}
    attribute: m_Sprite
    path: 
    classID: 212
    script: {fileID: 0}
  m_SampleRate: 60
  m_WrapMode: 0
  m_Bounds:
    m_Center: {x: 0, y: 0, z: 0}
    m_Extent: {x: 0, y: 0, z: 0}
  m_ClipBindingConstant:
    genericBindings:
    - path: 0
      attribute: 0
      script: {fileID: 0}
      classID: 212
      customType: 23
      isPPtrCurve: 1
    pptrCurveMapping:
    - {fileID: 21300000, guid: 0494c42ac9b6fe043a787fbb8b977677, type: 3}
    - {fileID: 21300000, guid: aa95940349fee184b8d16e4460eebf42, type: 3}
    - {fileID: 21300000, guid: ccad7508d17d10141b1f7b219ecb72af, type: 3}
    - {fileID: 21300000, guid: 0d5ec52078c4b824fa0173a0e9dd1794, type: 3}
    - {fileID: 21300000, guid: 9bb676b4de8c44b43b73b1c833374dec, type: 3}
    - {fileID: 21300000, guid: 8e10995f475c0ba419a66d64f696aa0f, type: 3}
    - {fileID: 21300000, guid: bbe993aff6005894788ff5a238c547ae, type: 3}
    - {fileID: 21300000, guid: 47d47a94ab38efa4785d2a9b80aaaeb1, type: 3}
    - {fileID: 21300000, guid: 81688cd71eeda7b44bd79c1b12f4785e, type: 3}
    - {fileID: 21300000, guid: a5daf90bd8f888540ad56aa77c7e8e8b, type: 3}
    - {fileID: 21300000, guid: af67d16b0b1950146bad91e5b0529037, type: 3}
  m_AnimationClipSettings:
    serializedVersion: 2
    m_AdditiveReferencePoseClip: {fileID: 0}
    m_AdditiveReferencePoseTime: 0
    m_StartTime: 0
    m_StopTime: 0.18333334
    m_OrientationOffsetY: 0
    m_Level: 0
    m_CycleOffset: 0
    m_HasAdditiveReferencePose: 0
    m_LoopTime: 0
    m_LoopBlend: 0
    m_LoopBlendOrientation: 0
    m_LoopBlendPositionY: 0
    m_LoopBlendPositionXZ: 0
    m_KeepOriginalOrientation: 0
    m_KeepOriginalPositionY: 1
    m_KeepOriginalPositionXZ: 0
    m_HeightFromFeet: 0
    m_Mirror: 0
  m_EditorCurves: []
  m_EulerEditorCurves: []
  m_HasGenericRootTransform: 0
  m_HasMotionFloatCurves: 0
  m_GenerateMotionCurves: 0
  m_Events: []
