%YAML 1.1
%TAG !u! tag:unity3d.com,2011:
--- !u!74 &7400000
AnimationClip:
  m_ObjectHideFlags: 0
  m_PrefabParentObject: {fileID: 0}
  m_PrefabInternal: {fileID: 0}
  m_Name: FlashDie
  serializedVersion: 6
  m_Legacy: 0
  m_Compressed: 0
  m_UseHighQualityCurve: 1
  m_RotationCurves: []
  m_CompressedRotationCurves: []
  m_EulerCurves: []
  m_PositionCurves: []
  m_ScaleCurves: []
  m_FloatCurves: []
  m_PPtrCurves:
  - curve:
    - time: 0
      value: {fileID: 21300000, guid: 39e48f466200f1f40969665e5ec5b441, type: 3}
    - time: 0.05
      value: {fileID: 21300000, guid: 5fbfe18df610bd247a8c675a7a216e02, type: 3}
    - time: 0.1
      value: {fileID: 21300000, guid: d1c3d61b7307a86488b21b0f5961161b, type: 3}
    - time: 0.15
      value: {fileID: 21300000, guid: a0774bfdfefef064586527acafec703e, type: 3}
    - time: 0.2
      value: {fileID: 21300000, guid: 16aed7e49d9e6734eaeb9dc0550e3309, type: 3}
    - time: 0.25
      value: {fileID: 21300000, guid: 5a4b98148a706e247bbada6becff2849, type: 3}
    - time: 0.3
      value: {fileID: 21300000, guid: 982de0c21d51e2d4c9c59814f964d781, type: 3}
    - time: 0.35
      value: {fileID: 21300000, guid: 96a473e5df841a94eb458950457f83e8, type: 3}
    - time: 0.4
      value: {fileID: 21300000, guid: f09b8435b9ba0494081b0627f14493d7, type: 3}
    - time: 0.45
      value: {fileID: 21300000, guid: 2fdf739220400764caddd1a5ebf101b5, type: 3}
    - time: 0.5
      value: {fileID: 21300000, guid: e7b6b3fafbfa10b48b35658ceb09d876, type: 3}
    - time: 0.55
      value: {fileID: 21300000, guid: c51290de6967cd94b98a75b84b371f9b, type: 3}
    - time: 0.6
      value: {fileID: 21300000, guid: 776b89c91c28dcb42bad05b38a705720, type: 3}
    - time: 0.65
      value: {fileID: 21300000, guid: 6c33494d8dadd50498aa75687d975a3d, type: 3}
    - time: 0.7
      value: {fileID: 21300000, guid: ce688be49077c9d44b0398eca1fbda51, type: 3}
    - time: 0.75
      value: {fileID: 21300000, guid: c098e88295e59a44ca081915a3ba7aac, type: 3}
    - time: 0.8
      value: {fileID: 21300000, guid: 259d644216ad0f947917c679466dd5fa, type: 3}
    - time: 0.85
      value: {fileID: 21300000, guid: af44f2fcc1817034785168bad6d7c8cb, type: 3}
    - time: 0.9
      value: {fileID: 21300000, guid: 43b9c8c6ea1f1cc49a4484ac0c035de7, type: 3}
    - time: 0.95
      value: {fileID: 21300000, guid: a6a0a3519448bee49880e247aa41fc80, type: 3}
    - time: 1
      value: {fileID: 21300000, guid: 3019d212c5f08cf4ba6a1da8a6956156, type: 3}
    - time: 1.05
      value: {fileID: 21300000, guid: 9b08b09ae6ea5f44b9fabfe3e0c1d066, type: 3}
    - time: 1.1
      value: {fileID: 21300000, guid: ca5e7cce61fff3249a16a8ed2eedb1d0, type: 3}
    - time: 1.15
      value: {fileID: 21300000, guid: bb922fef60fd6fe488645b252394e393, type: 3}
    - time: 1.2
      value: {fileID: 21300000, guid: 5081d11a85ac1c84fbc26714b1658a87, type: 3}
    - time: 1.25
      value: {fileID: 21300000, guid: b32318b3ff50f1e41bfd6a62ce6cce72, type: 3}
    - time: 1.3
      value: {fileID: 21300000, guid: f33487a4382c1fe438054a6735afb940, type: 3}
    - time: 1.35
      value: {fileID: 21300000, guid: f543d62c05a197845820092312f30b94, type: 3}
    - time: 1.4
      value: {fileID: 21300000, guid: 9533bc67932dc6d41819df5d5a6f1f3e, type: 3}
    - time: 1.45
      value: {fileID: 21300000, guid: 7b7fb4349574db54182a3732e8b6c48d, type: 3}
    - time: 1.5
      value: {fileID: 21300000, guid: a2ea9ede462b0c144a8df44e6daaa61d, type: 3}
    - time: 1.55
      value: {fileID: 21300000, guid: aa593c22d8fc5ee44be151501bfe948e, type: 3}
    - time: 1.6
      value: {fileID: 21300000, guid: 5a96432b902a01847bebb0311cd4fa76, type: 3}
    - time: 1.65
      value: {fileID: 21300000, guid: 188ee7413efa35b4d84d9c84862736fd, type: 3}
    - time: 1.7
      value: {fileID: 21300000, guid: 8c46150b30af1e24e967774f5d159e30, type: 3}
    attribute: m_Sprite
    path: 
    classID: 212
    script: {fileID: 0}
  m_SampleRate: 20
  m_WrapMode: 0
  m_Bounds:
    m_Center: {x: 0, y: 0, z: 0}
    m_Extent: {x: 0, y: 0, z: 0}
  m_ClipBindingConstant:
    genericBindings:
    - path: 0
      attribute: 0
      script: {fileID: 0}
      classID: 212
      customType: 23
      isPPtrCurve: 1
    pptrCurveMapping:
    - {fileID: 21300000, guid: 39e48f466200f1f40969665e5ec5b441, type: 3}
    - {fileID: 21300000, guid: 5fbfe18df610bd247a8c675a7a216e02, type: 3}
    - {fileID: 21300000, guid: d1c3d61b7307a86488b21b0f5961161b, type: 3}
    - {fileID: 21300000, guid: a0774bfdfefef064586527acafec703e, type: 3}
    - {fileID: 21300000, guid: 16aed7e49d9e6734eaeb9dc0550e3309, type: 3}
    - {fileID: 21300000, guid: 5a4b98148a706e247bbada6becff2849, type: 3}
    - {fileID: 21300000, guid: 982de0c21d51e2d4c9c59814f964d781, type: 3}
    - {fileID: 21300000, guid: 96a473e5df841a94eb458950457f83e8, type: 3}
    - {fileID: 21300000, guid: f09b8435b9ba0494081b0627f14493d7, type: 3}
    - {fileID: 21300000, guid: 2fdf739220400764caddd1a5ebf101b5, type: 3}
    - {fileID: 21300000, guid: e7b6b3fafbfa10b48b35658ceb09d876, type: 3}
    - {fileID: 21300000, guid: c51290de6967cd94b98a75b84b371f9b, type: 3}
    - {fileID: 21300000, guid: 776b89c91c28dcb42bad05b38a705720, type: 3}
    - {fileID: 21300000, guid: 6c33494d8dadd50498aa75687d975a3d, type: 3}
    - {fileID: 21300000, guid: ce688be49077c9d44b0398eca1fbda51, type: 3}
    - {fileID: 21300000, guid: c098e88295e59a44ca081915a3ba7aac, type: 3}
    - {fileID: 21300000, guid: 259d644216ad0f947917c679466dd5fa, type: 3}
    - {fileID: 21300000, guid: af44f2fcc1817034785168bad6d7c8cb, type: 3}
    - {fileID: 21300000, guid: 43b9c8c6ea1f1cc49a4484ac0c035de7, type: 3}
    - {fileID: 21300000, guid: a6a0a3519448bee49880e247aa41fc80, type: 3}
    - {fileID: 21300000, guid: 3019d212c5f08cf4ba6a1da8a6956156, type: 3}
    - {fileID: 21300000, guid: 9b08b09ae6ea5f44b9fabfe3e0c1d066, type: 3}
    - {fileID: 21300000, guid: ca5e7cce61fff3249a16a8ed2eedb1d0, type: 3}
    - {fileID: 21300000, guid: bb922fef60fd6fe488645b252394e393, type: 3}
    - {fileID: 21300000, guid: 5081d11a85ac1c84fbc26714b1658a87, type: 3}
    - {fileID: 21300000, guid: b32318b3ff50f1e41bfd6a62ce6cce72, type: 3}
    - {fileID: 21300000, guid: f33487a4382c1fe438054a6735afb940, type: 3}
    - {fileID: 21300000, guid: f543d62c05a197845820092312f30b94, type: 3}
    - {fileID: 21300000, guid: 9533bc67932dc6d41819df5d5a6f1f3e, type: 3}
    - {fileID: 21300000, guid: 7b7fb4349574db54182a3732e8b6c48d, type: 3}
    - {fileID: 21300000, guid: a2ea9ede462b0c144a8df44e6daaa61d, type: 3}
    - {fileID: 21300000, guid: aa593c22d8fc5ee44be151501bfe948e, type: 3}
    - {fileID: 21300000, guid: 5a96432b902a01847bebb0311cd4fa76, type: 3}
    - {fileID: 21300000, guid: 188ee7413efa35b4d84d9c84862736fd, type: 3}
    - {fileID: 21300000, guid: 8c46150b30af1e24e967774f5d159e30, type: 3}
  m_AnimationClipSettings:
    serializedVersion: 2
    m_AdditiveReferencePoseClip: {fileID: 0}
    m_AdditiveReferencePoseTime: 0
    m_StartTime: 0
    m_StopTime: 1.75
    m_OrientationOffsetY: 0
    m_Level: 0
    m_CycleOffset: 0
    m_HasAdditiveReferencePose: 0
    m_LoopTime: 0
    m_LoopBlend: 0
    m_LoopBlendOrientation: 0
    m_LoopBlendPositionY: 0
    m_LoopBlendPositionXZ: 0
    m_KeepOriginalOrientation: 0
    m_KeepOriginalPositionY: 1
    m_KeepOriginalPositionXZ: 0
    m_HeightFromFeet: 0
    m_Mirror: 0
  m_EditorCurves: []
  m_EulerEditorCurves: []
  m_HasGenericRootTransform: 0
  m_HasMotionFloatCurves: 0
  m_GenerateMotionCurves: 0
  m_Events: []
