%YAML 1.1
%TAG !u! tag:unity3d.com,2011:
--- !u!74 &7400000
AnimationClip:
  m_ObjectHideFlags: 0
  m_PrefabParentObject: {fileID: 0}
  m_PrefabInternal: {fileID: 0}
  m_Name: FlashTornadoKickHit
  serializedVersion: 6
  m_Legacy: 0
  m_Compressed: 0
  m_UseHighQualityCurve: 1
  m_RotationCurves: []
  m_CompressedRotationCurves: []
  m_EulerCurves: []
  m_PositionCurves:
  - curve:
      serializedVersion: 2
      m_Curve:
      - time: 0
        value: {x: 0.69, y: 0.81, z: 0}
        inSlope: {x: 48.599995, y: 0, z: 0}
        outSlope: {x: 48.599995, y: 0, z: 0}
        tangentMode: 0
      - time: 0.033333335
        value: {x: 2.31, y: 0.81, z: 0}
        inSlope: {x: 56.699997, y: 0, z: 0}
        outSlope: {x: 56.699997, y: 0, z: 0}
        tangentMode: 0
      - time: 0.06666667
        value: {x: 4.47, y: 0.81, z: 0}
        inSlope: {x: 31.95, y: 0.9000001, z: 0}
        outSlope: {x: 31.95, y: 0.9000001, z: 0}
        tangentMode: 0
      - time: 0.1
        value: {x: 4.44, y: 0.87, z: 0}
        inSlope: {x: -0.89999205, y: 1.8000002, z: 0}
        outSlope: {x: -0.89999205, y: 1.8000002, z: 0}
        tangentMode: 0
      m_PreInfinity: 2
      m_PostInfinity: 2
      m_RotationOrder: 4
    path: HitBox
  m_ScaleCurves:
  - curve:
      serializedVersion: 2
      m_Curve:
      - time: 0
        value: {x: 2.1813574, y: 2.1813579, z: 1.4542385}
        inSlope: {x: 610.2457, y: 110.30017, z: 0}
        outSlope: {x: 610.2457, y: 110.30017, z: 0}
        tangentMode: 0
      - time: 0.033333335
        value: {x: 22.522882, y: 5.8580303, z: 1.4542385}
        inSlope: {x: 694.468, y: 231.52916, z: 0}
        outSlope: {x: 694.468, y: 231.52916, z: 0}
        tangentMode: 0
      - time: 0.06666667
        value: {x: 48.479225, y: 17.616636, z: 1.4542385}
        inSlope: {x: 778.69025, y: 352.75815, z: 0}
        outSlope: {x: 778.69025, y: 352.75815, z: 0}
        tangentMode: 0
      m_PreInfinity: 2
      m_PostInfinity: 2
      m_RotationOrder: 4
    path: HitBox
  m_FloatCurves:
  - curve:
      serializedVersion: 2
      m_Curve:
      - time: 0
        value: 1
        inSlope: Infinity
        outSlope: Infinity
        tangentMode: 31
      - time: 0.06666667
        value: 0
        inSlope: Infinity
        outSlope: Infinity
        tangentMode: 31
      - time: 0.13333334
        value: 1
        inSlope: Infinity
        outSlope: Infinity
        tangentMode: 31
      - time: 0.2
        value: 0
        inSlope: Infinity
        outSlope: Infinity
        tangentMode: 31
      - time: 0.26666668
        value: 1
        inSlope: Infinity
        outSlope: Infinity
        tangentMode: 31
      - time: 0.33333334
        value: 0
        inSlope: Infinity
        outSlope: Infinity
        tangentMode: 31
      - time: 0.4
        value: 1
        inSlope: Infinity
        outSlope: Infinity
        tangentMode: 31
      - time: 0.46666667
        value: 0
        inSlope: Infinity
        outSlope: Infinity
        tangentMode: 31
      - time: 0.53333336
        value: 1
        inSlope: Infinity
        outSlope: Infinity
        tangentMode: 31
      m_PreInfinity: 2
      m_PostInfinity: 2
      m_RotationOrder: 4
    attribute: m_Enabled
    path: HitBox
    classID: 61
    script: {fileID: 0}
  m_PPtrCurves:
  - curve:
    - time: 0
      value: {fileID: 21300000, guid: 34d08852f90abc94c8af41f10ac9ae74, type: 3}
    - time: 0.033333335
      value: {fileID: 21300000, guid: 378d9a2a4336d684393dd6b8d79a726f, type: 3}
    - time: 0.06666667
      value: {fileID: 21300000, guid: 80b30d1754743144fad771f5b88c2805, type: 3}
    - time: 0.1
      value: {fileID: 21300000, guid: c93e4fa9bdc065e4bab6b134ce35e26d, type: 3}
    - time: 0.13333334
      value: {fileID: 21300000, guid: 2474604b9d8c3ad4c9516e6dd76651cf, type: 3}
    - time: 0.16666667
      value: {fileID: 21300000, guid: c93e4fa9bdc065e4bab6b134ce35e26d, type: 3}
    - time: 0.2
      value: {fileID: 21300000, guid: 80b30d1754743144fad771f5b88c2805, type: 3}
    - time: 0.23333333
      value: {fileID: 21300000, guid: c93e4fa9bdc065e4bab6b134ce35e26d, type: 3}
    - time: 0.26666668
      value: {fileID: 21300000, guid: 2474604b9d8c3ad4c9516e6dd76651cf, type: 3}
    - time: 0.3
      value: {fileID: 21300000, guid: c93e4fa9bdc065e4bab6b134ce35e26d, type: 3}
    - time: 0.33333334
      value: {fileID: 21300000, guid: 80b30d1754743144fad771f5b88c2805, type: 3}
    - time: 0.36666667
      value: {fileID: 21300000, guid: c93e4fa9bdc065e4bab6b134ce35e26d, type: 3}
    - time: 0.4
      value: {fileID: 21300000, guid: 2474604b9d8c3ad4c9516e6dd76651cf, type: 3}
    - time: 0.43333334
      value: {fileID: 21300000, guid: c93e4fa9bdc065e4bab6b134ce35e26d, type: 3}
    - time: 0.46666667
      value: {fileID: 21300000, guid: 80b30d1754743144fad771f5b88c2805, type: 3}
    - time: 0.5
      value: {fileID: 21300000, guid: 378d9a2a4336d684393dd6b8d79a726f, type: 3}
    - time: 0.53333336
      value: {fileID: 21300000, guid: 34d08852f90abc94c8af41f10ac9ae74, type: 3}
    attribute: m_Sprite
    path: 
    classID: 212
    script: {fileID: 0}
  m_SampleRate: 30
  m_WrapMode: 0
  m_Bounds:
    m_Center: {x: 0, y: 0, z: 0}
    m_Extent: {x: 0, y: 0, z: 0}
  m_ClipBindingConstant:
    genericBindings:
    - path: 3977501853
      attribute: 1
      script: {fileID: 0}
      classID: 4
      customType: 0
      isPPtrCurve: 0
    - path: 3977501853
      attribute: 3
      script: {fileID: 0}
      classID: 4
      customType: 0
      isPPtrCurve: 0
    - path: 3977501853
      attribute: 3305885265
      script: {fileID: 0}
      classID: 61
      customType: 0
      isPPtrCurve: 0
    - path: 0
      attribute: 0
      script: {fileID: 0}
      classID: 212
      customType: 23
      isPPtrCurve: 1
    pptrCurveMapping:
    - {fileID: 21300000, guid: 34d08852f90abc94c8af41f10ac9ae74, type: 3}
    - {fileID: 21300000, guid: 378d9a2a4336d684393dd6b8d79a726f, type: 3}
    - {fileID: 21300000, guid: 80b30d1754743144fad771f5b88c2805, type: 3}
    - {fileID: 21300000, guid: c93e4fa9bdc065e4bab6b134ce35e26d, type: 3}
    - {fileID: 21300000, guid: 2474604b9d8c3ad4c9516e6dd76651cf, type: 3}
    - {fileID: 21300000, guid: c93e4fa9bdc065e4bab6b134ce35e26d, type: 3}
    - {fileID: 21300000, guid: 80b30d1754743144fad771f5b88c2805, type: 3}
    - {fileID: 21300000, guid: c93e4fa9bdc065e4bab6b134ce35e26d, type: 3}
    - {fileID: 21300000, guid: 2474604b9d8c3ad4c9516e6dd76651cf, type: 3}
    - {fileID: 21300000, guid: c93e4fa9bdc065e4bab6b134ce35e26d, type: 3}
    - {fileID: 21300000, guid: 80b30d1754743144fad771f5b88c2805, type: 3}
    - {fileID: 21300000, guid: c93e4fa9bdc065e4bab6b134ce35e26d, type: 3}
    - {fileID: 21300000, guid: 2474604b9d8c3ad4c9516e6dd76651cf, type: 3}
    - {fileID: 21300000, guid: c93e4fa9bdc065e4bab6b134ce35e26d, type: 3}
    - {fileID: 21300000, guid: 80b30d1754743144fad771f5b88c2805, type: 3}
    - {fileID: 21300000, guid: 378d9a2a4336d684393dd6b8d79a726f, type: 3}
    - {fileID: 21300000, guid: 34d08852f90abc94c8af41f10ac9ae74, type: 3}
  m_AnimationClipSettings:
    serializedVersion: 2
    m_AdditiveReferencePoseClip: {fileID: 0}
    m_AdditiveReferencePoseTime: 0
    m_StartTime: 0
    m_StopTime: 0.5666667
    m_OrientationOffsetY: 0
    m_Level: 0
    m_CycleOffset: 0
    m_HasAdditiveReferencePose: 0
    m_LoopTime: 0
    m_LoopBlend: 0
    m_LoopBlendOrientation: 0
    m_LoopBlendPositionY: 0
    m_LoopBlendPositionXZ: 0
    m_KeepOriginalOrientation: 0
    m_KeepOriginalPositionY: 1
    m_KeepOriginalPositionXZ: 0
    m_HeightFromFeet: 0
    m_Mirror: 0
  m_EditorCurves:
  - curve:
      serializedVersion: 2
      m_Curve:
      - time: 0
        value: 1
        inSlope: Infinity
        outSlope: Infinity
        tangentMode: 31
      - time: 0.06666667
        value: 0
        inSlope: Infinity
        outSlope: Infinity
        tangentMode: 31
      - time: 0.13333334
        value: 1
        inSlope: Infinity
        outSlope: Infinity
        tangentMode: 31
      - time: 0.2
        value: 0
        inSlope: Infinity
        outSlope: Infinity
        tangentMode: 31
      - time: 0.26666668
        value: 1
        inSlope: Infinity
        outSlope: Infinity
        tangentMode: 31
      - time: 0.33333334
        value: 0
        inSlope: Infinity
        outSlope: Infinity
        tangentMode: 31
      - time: 0.4
        value: 1
        inSlope: Infinity
        outSlope: Infinity
        tangentMode: 31
      - time: 0.46666667
        value: 0
        inSlope: Infinity
        outSlope: Infinity
        tangentMode: 31
      - time: 0.53333336
        value: 1
        inSlope: Infinity
        outSlope: Infinity
        tangentMode: 31
      m_PreInfinity: 2
      m_PostInfinity: 2
      m_RotationOrder: 4
    attribute: m_Enabled
    path: HitBox
    classID: 61
    script: {fileID: 0}
  - curve:
      serializedVersion: 2
      m_Curve:
      - time: 0
        value: 0.69
        inSlope: 48.599995
        outSlope: 48.599995
        tangentMode: 10
      - time: 0.033333335
        value: 2.31
        inSlope: 56.699997
        outSlope: 56.699997
        tangentMode: 10
      - time: 0.06666667
        value: 4.47
        inSlope: 31.95
        outSlope: 31.95
        tangentMode: 10
      - time: 0.1
        value: 4.44
        inSlope: -0.89999205
        outSlope: -0.89999205
        tangentMode: 10
      m_PreInfinity: 2
      m_PostInfinity: 2
      m_RotationOrder: 4
    attribute: m_LocalPosition.x
    path: HitBox
    classID: 4
    script: {fileID: 0}
  - curve:
      serializedVersion: 2
      m_Curve:
      - time: 0
        value: 0.81
        inSlope: 0
        outSlope: 0
        tangentMode: 10
      - time: 0.033333335
        value: 0.81
        inSlope: 0
        outSlope: 0
        tangentMode: 10
      - time: 0.06666667
        value: 0.81
        inSlope: 0.9000001
        outSlope: 0.9000001
        tangentMode: 10
      - time: 0.1
        value: 0.87
        inSlope: 1.8000002
        outSlope: 1.8000002
        tangentMode: 10
      m_PreInfinity: 2
      m_PostInfinity: 2
      m_RotationOrder: 4
    attribute: m_LocalPosition.y
    path: HitBox
    classID: 4
    script: {fileID: 0}
  - curve:
      serializedVersion: 2
      m_Curve:
      - time: 0
        value: 0
        inSlope: 0
        outSlope: 0
        tangentMode: 10
      - time: 0.033333335
        value: 0
        inSlope: 0
        outSlope: 0
        tangentMode: 10
      - time: 0.06666667
        value: 0
        inSlope: 0
        outSlope: 0
        tangentMode: 10
      - time: 0.1
        value: 0
        inSlope: 0
        outSlope: 0
        tangentMode: 10
      m_PreInfinity: 2
      m_PostInfinity: 2
      m_RotationOrder: 4
    attribute: m_LocalPosition.z
    path: HitBox
    classID: 4
    script: {fileID: 0}
  - curve:
      serializedVersion: 2
      m_Curve:
      - time: 0
        value: 2.1813574
        inSlope: 610.2457
        outSlope: 610.2457
        tangentMode: 10
      - time: 0.033333335
        value: 22.522882
        inSlope: 694.468
        outSlope: 694.468
        tangentMode: 10
      - time: 0.06666667
        value: 48.479225
        inSlope: 778.69025
        outSlope: 778.69025
        tangentMode: 10
      m_PreInfinity: 2
      m_PostInfinity: 2
      m_RotationOrder: 4
    attribute: m_LocalScale.x
    path: HitBox
    classID: 4
    script: {fileID: 0}
  - curve:
      serializedVersion: 2
      m_Curve:
      - time: 0
        value: 2.1813579
        inSlope: 110.30017
        outSlope: 110.30017
        tangentMode: 10
      - time: 0.033333335
        value: 5.8580303
        inSlope: 231.52916
        outSlope: 231.52916
        tangentMode: 10
      - time: 0.06666667
        value: 17.616636
        inSlope: 352.75815
        outSlope: 352.75815
        tangentMode: 10
      m_PreInfinity: 2
      m_PostInfinity: 2
      m_RotationOrder: 4
    attribute: m_LocalScale.y
    path: HitBox
    classID: 4
    script: {fileID: 0}
  - curve:
      serializedVersion: 2
      m_Curve:
      - time: 0
        value: 1.4542385
        inSlope: 0
        outSlope: 0
        tangentMode: 10
      - time: 0.033333335
        value: 1.4542385
        inSlope: 0
        outSlope: 0
        tangentMode: 10
      - time: 0.06666667
        value: 1.4542385
        inSlope: 0
        outSlope: 0
        tangentMode: 10
      m_PreInfinity: 2
      m_PostInfinity: 2
      m_RotationOrder: 4
    attribute: m_LocalScale.z
    path: HitBox
    classID: 4
    script: {fileID: 0}
  m_EulerEditorCurves: []
  m_HasGenericRootTransform: 0
  m_HasMotionFloatCurves: 0
  m_GenerateMotionCurves: 0
  m_Events: []
