%YAML 1.1
%TAG !u! tag:unity3d.com,2011:
--- !u!74 &7400000
AnimationClip:
  m_ObjectHideFlags: 0
  m_PrefabParentObject: {fileID: 0}
  m_PrefabInternal: {fileID: 0}
  m_Name: FlashRageKickStartup
  serializedVersion: 6
  m_Legacy: 0
  m_Compressed: 0
  m_UseHighQualityCurve: 1
  m_RotationCurves: []
  m_CompressedRotationCurves: []
  m_EulerCurves: []
  m_PositionCurves: []
  m_ScaleCurves: []
  m_FloatCurves: []
  m_PPtrCurves:
  - curve:
    - time: 0
      value: {fileID: 21300000, guid: ae8e17f029905224588ee6f02be5ba2f, type: 3}
    - time: 0.016666668
      value: {fileID: 21300000, guid: dd7364b379043574d80fb593d0464209, type: 3}
    - time: 0.033333335
      value: {fileID: 21300000, guid: 6467bfc5da6c1654ab17dfd46f3247f9, type: 3}
    - time: 0.05
      value: {fileID: 21300000, guid: 76b68dc3b7dbc3a4f8b66cf20d6a85cf, type: 3}
    - time: 0.06666667
      value: {fileID: 21300000, guid: f109f930e14a5c7429ed9b50bb463b8b, type: 3}
    - time: 0.083333336
      value: {fileID: 21300000, guid: db6a74fc0ad695a499431efe731e05c6, type: 3}
    - time: 0.1
      value: {fileID: 21300000, guid: 7407e95b3d35bb94bbd5de4b06aad902, type: 3}
    - time: 0.11666667
      value: {fileID: 21300000, guid: 4370f27da729ba9458047364d9a60c90, type: 3}
    attribute: m_Sprite
    path: 
    classID: 212
    script: {fileID: 0}
  m_SampleRate: 60
  m_WrapMode: 0
  m_Bounds:
    m_Center: {x: 0, y: 0, z: 0}
    m_Extent: {x: 0, y: 0, z: 0}
  m_ClipBindingConstant:
    genericBindings:
    - path: 0
      attribute: 0
      script: {fileID: 0}
      classID: 212
      customType: 23
      isPPtrCurve: 1
    pptrCurveMapping:
    - {fileID: 21300000, guid: ae8e17f029905224588ee6f02be5ba2f, type: 3}
    - {fileID: 21300000, guid: dd7364b379043574d80fb593d0464209, type: 3}
    - {fileID: 21300000, guid: 6467bfc5da6c1654ab17dfd46f3247f9, type: 3}
    - {fileID: 21300000, guid: 76b68dc3b7dbc3a4f8b66cf20d6a85cf, type: 3}
    - {fileID: 21300000, guid: f109f930e14a5c7429ed9b50bb463b8b, type: 3}
    - {fileID: 21300000, guid: db6a74fc0ad695a499431efe731e05c6, type: 3}
    - {fileID: 21300000, guid: 7407e95b3d35bb94bbd5de4b06aad902, type: 3}
    - {fileID: 21300000, guid: 4370f27da729ba9458047364d9a60c90, type: 3}
  m_AnimationClipSettings:
    serializedVersion: 2
    m_AdditiveReferencePoseClip: {fileID: 0}
    m_AdditiveReferencePoseTime: 0
    m_StartTime: 0
    m_StopTime: 0.13333334
    m_OrientationOffsetY: 0
    m_Level: 0
    m_CycleOffset: 0
    m_HasAdditiveReferencePose: 0
    m_LoopTime: 0
    m_LoopBlend: 0
    m_LoopBlendOrientation: 0
    m_LoopBlendPositionY: 0
    m_LoopBlendPositionXZ: 0
    m_KeepOriginalOrientation: 0
    m_KeepOriginalPositionY: 1
    m_KeepOriginalPositionXZ: 0
    m_HeightFromFeet: 0
    m_Mirror: 0
  m_EditorCurves: []
  m_EulerEditorCurves: []
  m_HasGenericRootTransform: 0
  m_HasMotionFloatCurves: 0
  m_GenerateMotionCurves: 0
  m_Events: []
